Developing Your First R Package
…
---
# Restructure for plotting

```r
d <- d %>% 
  pivot_longer(
    -var,
    names_to = "group", 
    values_to = "value"
  ) 
d
```

```
## # A tibble: 4,000 x 3
##    var    group     value
##    <chr>  <chr>     <dbl>
##  1 common low    9.549110
##  2 common high  13.50911 
##  3 common low    9.350832
##  4 common high  12.93887 
##  5 common low   10.40181 
##  6 common high  12.20612 
##  7 common low   10.81037 
##  8 common high  10.52069 
##  9 common low   10.79728 
## 10 common high  12.71338 
## # … with 3,990 more rows
```
…
