Data types
…
---
# tibbles
* Note dropping the data frame attribute is the default for a `data.frame` but .b[.bolder[NOT]] a `tibble`.

```r
mtcars_tbl <- tibble::as_tibble(mtcars)
mtcars_tbl[ ,4]
```

```
## # A tibble: 32 x 1
##       hp
##    <dbl>
##  1   110
##  2   110
##  3    93
##  4   110
##  5   175
##  6   105
##  7   245
##  8    62
##  9    95
## 10   123
## # … with 22 more rows
```
…
