Batch loading data
…
---
# Swap for `map_dfr`
### Try it - what happens?

01:00

--

```r
sims_df <- map_dfr(seq(10, 150, 5), simulate, 100, 10)
sims_df
```

```
## # A tibble: 2,320 x 2
##    sample_id    sample
##        <int>     <dbl>
##  1         1  85.64361
##  2         2 103.6789 
##  3         3  94.71782
##  4         4 103.1350 
##  5         5  99.78701
##  6         6 105.3462 
##  7         7 100.0653 
##  8         8  94.28314
##  9         9 108.8872 
## 10        10 106.0850 
## # … with 2,310 more rows
```
…
---
# Batch load
* Loop through the directories and `import` or `read_csv`

```r
files <- dir_ls(
  here::here("data", "pfiles_sim"), 
  glob = "*.csv"
)
batch <- map_dfr(files, read_csv)
batch
```

```
## # A tibble: 15,945 x 22
##    Entry   Theta Status Count RawScore     SE Infit Infit_Z Outfit Outfit_Z Displacement
##    <dbl>   <dbl>  <dbl> <dbl>    <dbl>  <dbl> <dbl>   <dbl>  <dbl>    <dbl>        <dbl>
##  1   123  1.2687      1    36       23 0.3713  0.93   -0.34   0.82    -0.62       0.0018
##  2    88  1.5541      1    36       25 0.3852  0.95   -0.37   0.81    -0.56       0.0019
##  3   105  3.2773      1    36       33 0.6187  0.9    -0.04   1.63     1.03       0.0022
##  4   153  4.4752      1    36       35 1.0234  0.93    0.23   0.35    -0.16       0.0023
##  5   437  2.6655      1    36       31 0.5008  0.92   -0.18   0.88    -0.12       0.0021
##  6   307  5.7137      0    36       36 1.8371  1       0      1        0          0.0024
##  7   305  3.7326      1    36       34 0.7408  1.06    0.31   0.86     0.17       0.0022
##  8    42  0.609       1    36       18 0.36    1.55    2.56   1.74     3.31       0.0017
##  9    59 -2.623       1    36        3 1.0344  0.85    0.06   0.17    -0.37       0.0009
## 10   304  5.7137      0    36       36 1.8371  1       0      1        0          0.0024
## # … with 15,935 more rows, and 11 more variables: PointMeasureCorr <dbl>, Weight <dbl>,
## #   ObservMatch <dbl>, ExpectMatch <dbl>, PointMeasureExpected <dbl>, RMSR <dbl>,
## #   WMLE <dbl>, testeventid <dbl>, ssid <dbl>, asmtprmrydsbltycd <dbl>,
## #   asmtscndrydsbltycd <dbl>
```
…
batch2 %>% 
  count(file)
```

```
## # A tibble: 31 x 2
##    file                            n
##    <chr>                       <int>
##  1 /g11ELApfiles18_sim.csv       453
##  2 /g11Mathpfiles18_sim.csv      460
##  3 /g11Rdgpfiles18_sim.csv       453
##  4 /g11Sciencepfiles18_sim.csv   438
##  5 /g11Wripfiles18_sim.csv       453
##  6 /g3ELApfiles18_sim.csv        540
##  7 /g3Mathpfiles18_sim.csv       536
##  8 /g3Rdgpfiles18_sim.csv        540
##  9 /g3Wripfiles18_sim.csv        540
## 10 /g4ELApfiles18_sim.csv        585
## # … with 21 more rows
```
…
```r
batch2 %>%
	mutate(
	  grade = str_replace_all(
	    file, 
	    "/g(\\d?\\d).+", 
	    "\\1"
    )
  ) %>%
	select(file, grade)
```

```
## # A tibble: 15,945 x 2
##    file                    grade
##    <chr>                   <chr>
##  1 /g11ELApfiles18_sim.csv 11   
##  2 /g11ELApfiles18_sim.csv 11   
##  3 /g11ELApfiles18_sim.csv 11   
##  4 /g11ELApfiles18_sim.csv 11   
##  5 /g11ELApfiles18_sim.csv 11   
##  6 /g11ELApfiles18_sim.csv 11   
##  7 /g11ELApfiles18_sim.csv 11   
##  8 /g11ELApfiles18_sim.csv 11   
##  9 /g11ELApfiles18_sim.csv 11   
## 10 /g11ELApfiles18_sim.csv 11   
## # … with 15,935 more rows
```

---
# `parse_number`

* In this case `parse_number` also works - but note that it would not work to
extract the year

```r
batch2 %>%
*mutate(grade = parse_number(file)) %>%
	select(file, grade)
```

```
## # A tibble: 15,945 x 2
##    file                    grade
##    <chr>                   <dbl>
##  1 /g11ELApfiles18_sim.csv    11
##  2 /g11ELApfiles18_sim.csv    11
##  3 /g11ELApfiles18_sim.csv    11
##  4 /g11ELApfiles18_sim.csv    11
##  5 /g11ELApfiles18_sim.csv    11
##  6 /g11ELApfiles18_sim.csv    11
##  7 /g11ELApfiles18_sim.csv    11
##  8 /g11ELApfiles18_sim.csv    11
##  9 /g11ELApfiles18_sim.csv    11
## 10 /g11ELApfiles18_sim.csv    11
## # … with 15,935 more rows
```
…
```r
batch2 %>%
	mutate(
	  grade = str_replace_all(
	    file, "/g(\\d?\\d).+", "\\1"
    ),
*  year = str_replace_all(
*    file, ".+files(\\d\\d)_sim.+", "\\1"
*   )
  ) %>% 
	select(file, grade, year)
```

```
## # A tibble: 15,945 x 3
##    file                    grade year 
##    <chr>                   <chr> <chr>
##  1 /g11ELApfiles18_sim.csv 11    18   
##  2 /g11ELApfiles18_sim.csv 11    18   
##  3 /g11ELApfiles18_sim.csv 11    18   
##  4 /g11ELApfiles18_sim.csv 11    18   
##  5 /g11ELApfiles18_sim.csv 11    18   
##  6 /g11ELApfiles18_sim.csv 11    18   
##  7 /g11ELApfiles18_sim.csv 11    18   
##  8 /g11ELApfiles18_sim.csv 11    18   
##  9 /g11ELApfiles18_sim.csv 11    18   
## 10 /g11ELApfiles18_sim.csv 11    18   
## # … with 15,935 more rows
```
…
```
## # A tibble: 15,945 x 4
##    file                    grade year  content
##    <chr>                   <chr> <chr> <chr>  
##  1 /g11ELApfiles18_sim.csv 11    18    ELA    
##  2 /g11ELApfiles18_sim.csv 11    18    ELA    
##  3 /g11ELApfiles18_sim.csv 11    18    ELA    
##  4 /g11ELApfiles18_sim.csv 11    18    ELA    
##  5 /g11ELApfiles18_sim.csv 11    18    ELA    
##  6 /g11ELApfiles18_sim.csv 11    18    ELA    
##  7 /g11ELApfiles18_sim.csv 11    18    ELA    
##  8 /g11ELApfiles18_sim.csv 11    18    ELA    
##  9 /g11ELApfiles18_sim.csv 11    18    ELA    
## 10 /g11ELApfiles18_sim.csv 11    18    ELA    
## # … with 15,935 more rows
```
…
---
# Final product
* In this case, we basically have a tidy data frame already! 

* We've reduced our problem from 31 files to a single file

```r
d
```

```
## # A tibble: 15,945 x 25
##        ssid grade  year content testeventid asmtprmrydsbltycd asmtscndrydsbltycd Entry
##       <dbl> <int> <int> <chr>         <dbl>             <dbl>              <dbl> <dbl>
##  1  9466908    11    11 ELA          148933                 0                  0   123
##  2  7683685    11    11 ELA          147875                10                  0    88
##  3  9025693    11    11 ELA          143699                40                 20   105
##  4 10099824    11    11 ELA          143962                82                  0   153
##  5 18886078    11    11 ELA          150680                10                  0   437
##  6 10606750    11    11 ELA          144583                80                 80   307
##  7 10541306    11    11 ELA          145204                50                  0   305
##  8  7632967    11    11 ELA          148926                10                  0    42
##  9  7661118    11    11 ELA          148893                50                  0    59
## 10 10547177    11    11 ELA          144583                82                  0   304
## # … with 15,935 more rows, and 17 more variables: Theta <dbl>, Status <dbl>, Count <dbl>,
## #   RawScore <dbl>, SE <dbl>, Infit <dbl>, Infit_Z <dbl>, Outfit <dbl>, Outfit_Z <dbl>,
## #   Displacement <dbl>, PointMeasureCorr <dbl>, Weight <dbl>, ObservMatch <dbl>,
## #   ExpectMatch <dbl>, PointMeasureExpected <dbl>, RMSR <dbl>, WMLE <dbl>
```
…
---
# Summary stats

```r
d %>%
	group_by(grade, content, asmtprmrydsbltycd) %>%
	summarize(mean = mean(Theta)) %>%
	pivot_wider(names_from = content, 
	            values_from = mean)
```

```
## # A tibble: 77 x 7
## # Groups:   grade [7]
##    grade asmtprmrydsbltycd        ELA        Math        Rdg        Wri Science
##    <int>             <dbl>      <dbl>       <dbl>      <dbl>      <dbl>   <dbl>
##  1     3                 0 -0.07361   -1.21055     1.010455   1.612308       NA
##  2     3                10  0.3700416 -0.8182091   0.5184354  0.3206475      NA
##  3     3                20 -0.06335   -1.2514      1.52      -0.5775         NA
##  4     3                40 -1.877683  -3.56365    -1.761667  -0.7514286      NA
##  5     3                50  0.9462857 -0.09186957  0.9791176  1.191481       NA
##  6     3                60  0.840775   1.040375    2.181111   1.067          NA
##  7     3                70 -1.104049  -1.517955   -0.8454839 -1.005625       NA
##  8     3                74  0.996      0.0208375   0.6        1.2925         NA
##  9     3                80 -0.144304  -0.5325596   0.6791667  0.2686301      NA
## 10     3                82  0.3708244 -1.080988    0.5676650  0.3440741      NA
## # … with 67 more rows
```
…
```r
g5 <- map_dfr(g5_paths, read_csv, .id = "file") %>%
  mutate(
	  file = str_replace_all(
	    file, 
	    here::here("data", "pfiles_sim"), 
	    ""
	  )
	)
g5
```

```
## # A tibble: 2,632 x 23
##    file                   Entry   Theta Status Count RawScore     SE Infit Infit_Z Outfit
##    <chr>                  <dbl>   <dbl>  <dbl> <dbl>    <dbl>  <dbl> <dbl>   <dbl>  <dbl>
##  1 /g5ELApfiles18_sim.csv   375  3.154       1    36       32 0.551   1.22    0.91   2.1 
##  2 /g5ELApfiles18_sim.csv   305  0.3662      1    36       16 0.3894  0.94   -0.31   0.98
##  3 /g5ELApfiles18_sim.csv   163 -4.9547     -1    36        0 1.8495  1       0      1   
##  4 /g5ELApfiles18_sim.csv   524 -4.9547     -1    36        0 1.8495  1       0      1   
##  5 /g5ELApfiles18_sim.csv    81  3.154       1    36       32 0.551   0.96    0      0.58
##  6 /g5ELApfiles18_sim.csv   325  1.7156      1    36       25 0.3997  1.14    0.92   1.23
##  7 /g5ELApfiles18_sim.csv   163  1.8786      1    36       26 0.4078  0.82   -1.08   0.57
##  8 /g5ELApfiles18_sim.csv   116  5.9323      0    36       36 1.8373  1       0      1   
##  9 /g5ELApfiles18_sim.csv   273  1.4052      1    36       23 0.3891  1.08    0.44   0.94
## 10 /g5ELApfiles18_sim.csv   202  1.8786      1    36       26 0.4078  0.79   -0.84   0.76
## # … with 2,622 more rows, and 13 more variables: Outfit_Z <dbl>, Displacement <dbl>,
## #   PointMeasureCorr <dbl>, Weight <dbl>, ObservMatch <dbl>, ExpectMatch <dbl>,
## #   PointMeasureExpected <dbl>, RMSR <dbl>, WMLE <dbl>, testeventid <dbl>, ssid <dbl>,
## #   asmtprmrydsbltycd <dbl>, asmtscndrydsbltycd <dbl>
```
…
---
# Try again

```r
files <- list.files(here::here("data", "pfiles_sim"), 
                    pattern = "*.csv", 
                    full.names = TRUE)
batch3 <- map_dfr(files, read_csv, .id = "file")
batch3
```

```
## # A tibble: 15,945 x 23
##    file  Entry   Theta Status Count RawScore     SE Infit Infit_Z Outfit Outfit_Z
##    <chr> <dbl>   <dbl>  <dbl> <dbl>    <dbl>  <dbl> <dbl>   <dbl>  <dbl>    <dbl>
##  1 1       123  1.2687      1    36       23 0.3713  0.93   -0.34   0.82    -0.62
##  2 1        88  1.5541      1    36       25 0.3852  0.95   -0.37   0.81    -0.56
##  3 1       105  3.2773      1    36       33 0.6187  0.9    -0.04   1.63     1.03
##  4 1       153  4.4752      1    36       35 1.0234  0.93    0.23   0.35    -0.16
##  5 1       437  2.6655      1    36       31 0.5008  0.92   -0.18   0.88    -0.12
##  6 1       307  5.7137      0    36       36 1.8371  1       0      1        0   
##  7 1       305  3.7326      1    36       34 0.7408  1.06    0.31   0.86     0.17
##  8 1        42  0.609       1    36       18 0.36    1.55    2.56   1.74     3.31
##  9 1        59 -2.623       1    36        3 1.0344  0.85    0.06   0.17    -0.37
## 10 1       304  5.7137      0    36       36 1.8371  1       0      1        0   
## # … with 15,935 more rows, and 12 more variables: Displacement <dbl>,
## #   PointMeasureCorr <dbl>, Weight <dbl>, ObservMatch <dbl>, ExpectMatch <dbl>,
## #   PointMeasureExpected <dbl>, RMSR <dbl>, WMLE <dbl>, testeventid <dbl>, ssid <dbl>,
## #   asmtprmrydsbltycd <dbl>, asmtscndrydsbltycd <dbl>
```
…
