List columns
…
---
# Select and unnest

```r
tidied <- mods %>%
	gather(model, output, m1:m3) %>%
	mutate(tidied = map(output, broom::tidy)) %>%
	select(content, model, tidied) %>%
	unnest(tidied)
tidied
```

```
## # A tibble: 841 x 7
## # Groups:   content [5]
##    content model term           estimate std.error   statistic     p.value
##    <chr>   <chr> <chr>             <dbl>     <dbl>       <dbl>       <dbl>
##  1 ELA     m1    (Intercept)  0.9322336  0.2150561  4.334839   1.498396e-5
##  2 ELA     m1    primary10    0.3856986  0.2242965  1.719593   8.559207e-2
##  3 ELA     m1    primary20   -0.03167527 0.7266436 -0.04359120 9.652327e-1
##  4 ELA     m1    primary40   -1.844343   0.5559031 -3.317741   9.164595e-4
##  5 ELA     m1    primary50    1.173722   0.2890447  4.060694   4.996391e-5
##  6 ELA     m1    primary60    0.7762539  0.3866313  2.007737   4.474555e-2
##  7 ELA     m1    primary70   -1.830257   0.3086128 -5.930595   3.301860e-9
##  8 ELA     m1    primary74   -0.7647874  0.5182670 -1.475663   1.401215e-1
##  9 ELA     m1    primary80    0.4676481  0.2428640  1.925556   5.423822e-2
## 10 ELA     m1    primary82    0.3382547  0.2267600  1.491686   1.358687e-1
## # … with 831 more rows
```
…
* No problem, just change the grouping factor

---
# By grade

```r
by_grade_content <- d %>%
  group_by(content, grade) %>% 
	nest()
by_grade_content
```

```
## # A tibble: 31 x 3
## # Groups:   grade, content [31]
##    grade content data                    
##    <int> <chr>   <list>                  
##  1    11 ELA     <tibble[,25] [453 × 25]>
##  2    11 Math    <tibble[,25] [460 × 25]>
##  3    11 Rdg     <tibble[,25] [453 × 25]>
##  4    11 Science <tibble[,25] [438 × 25]>
##  5    11 Wri     <tibble[,25] [453 × 25]>
##  6     3 ELA     <tibble[,25] [540 × 25]>
##  7     3 Math    <tibble[,25] [536 × 25]>
##  8     3 Rdg     <tibble[,25] [540 × 25]>
##  9     3 Wri     <tibble[,25] [540 × 25]>
## 10     4 ELA     <tibble[,25] [585 × 25]>
## # … with 21 more rows
```
…
```r
mods_grade <- by_grade_content %>%
  mutate(
    m1 = map(data, ~lm(Theta ~ primary, data = .x)),
    m2 = map(data, ~lm(Theta ~ primary + secondary, 
                       data = .x)),
    m3 = map(data, ~lm(Theta ~ primary * secondary, 
                       data = .x))
)
mods_grade
```

```
## # A tibble: 31 x 6
## # Groups:   grade, content [31]
##    grade content data                     m1     m2     m3    
##    <int> <chr>   <list>                   <list> <list> <list>
##  1    11 ELA     <tibble[,25] [453 × 25]> <lm>   <lm>   <lm>  
##  2    11 Math    <tibble[,25] [460 × 25]> <lm>   <lm>   <lm>  
##  3    11 Rdg     <tibble[,25] [453 × 25]> <lm>   <lm>   <lm>  
##  4    11 Science <tibble[,25] [438 × 25]> <lm>   <lm>   <lm>  
##  5    11 Wri     <tibble[,25] [453 × 25]> <lm>   <lm>   <lm>  
##  6     3 ELA     <tibble[,25] [540 × 25]> <lm>   <lm>   <lm>  
##  7     3 Math    <tibble[,25] [536 × 25]> <lm>   <lm>   <lm>  
##  8     3 Rdg     <tibble[,25] [540 × 25]> <lm>   <lm>   <lm>  
##  9     3 Wri     <tibble[,25] [540 × 25]> <lm>   <lm>   <lm>  
## 10     4 ELA     <tibble[,25] [585 × 25]> <lm>   <lm>   <lm>  
## # … with 21 more rows
```
---
# Look at `\(R^2\)`

```r
mods_grade %>%
	pivot_longer(
    m1:m3, 
    names_to = "model", 
    values_to = "output"
  ) %>% 
	mutate(r2 = map_dbl(output, ~summary(.x)$r.squared))
```

```
## # A tibble: 93 x 6
## # Groups:   grade, content [31]
##    grade content data                     model output         r2
##    <int> <chr>   <list>                   <chr> <list>      <dbl>
##  1    11 ELA     <tibble[,25] [453 × 25]> m1    <lm>   0.03353818
##  2    11 ELA     <tibble[,25] [453 × 25]> m2    <lm>   0.1084394 
##  3    11 ELA     <tibble[,25] [453 × 25]> m3    <lm>   0.1536891 
##  4    11 Math    <tibble[,25] [460 × 25]> m1    <lm>   0.1886003 
##  5    11 Math    <tibble[,25] [460 × 25]> m2    <lm>   0.3161226 
##  6    11 Math    <tibble[,25] [460 × 25]> m3    <lm>   0.4046634 
##  7    11 Rdg     <tibble[,25] [453 × 25]> m1    <lm>   0.02066316
##  8    11 Rdg     <tibble[,25] [453 × 25]> m2    <lm>   0.1820512 
##  9    11 Rdg     <tibble[,25] [453 × 25]> m3    <lm>   0.2337721 
## 10    11 Science <tibble[,25] [438 × 25]> m1    <lm>   0.1259080 
## # … with 83 more rows
```
…
