Parallel Iterations
…
---
# More powerful
### Add it as a list column!

```r
sim2 <- conditions %>%
  as_tibble() %>% # Not required, but definitely helpful
  mutate(sim = map2(n, mu, ~rnorm(n = .x, mean = .y, sd = 10))) 
sim2
```

```
## # A tibble: 510 x 3
##        n    mu sim       
##    <dbl> <dbl> <list>    
##  1     5    -2 <dbl [5]> 
##  2    10    -2 <dbl [10]>
##  3    15    -2 <dbl [15]>
##  4    20    -2 <dbl [20]>
##  5    25    -2 <dbl [25]>
##  6    30    -2 <dbl [30]>
##  7    35    -2 <dbl [35]>
##  8    40    -2 <dbl [40]>
##  9    45    -2 <dbl [45]>
## 10    50    -2 <dbl [50]>
## # … with 500 more rows
```

---
# Unnest

```r
conditions %>%
  as_tibble() %>% 
  mutate(sim = map2(n, mu, ~rnorm(.x, .y, sd = 10))) %>%
  unnest(sim)
```

```
## # A tibble: 39,525 x 3
##        n    mu         sim
##    <dbl> <dbl>       <dbl>
##  1     5    -2   7.570682 
##  2     5    -2  -2.268110 
##  3     5    -2 -11.52502  
##  4     5    -2  -5.372831 
##  5     5    -2  -4.913946 
##  6    10    -2   0.5334139
##  7    10    -2   6.504093 
##  8    10    -2 -20.98906  
##  9    10    -2  13.81959  
## 10    10    -2 -16.19086  
## # … with 39,515 more rows
```
…
Can you replicate what we just did, but using a `rowwise()` approach?

03:00

--

```r
conditions %>% 
  rowwise() %>% 
  mutate(sim = list(rnorm(n, mu, sd = 10))) %>% 
  unnest(sim)
```

```
## # A tibble: 39,525 x 3
##        n    mu        sim
##    <dbl> <dbl>      <dbl>
##  1     5    -2  13.95355 
##  2     5    -2  31.02931 
##  3     5    -2  -2.671605
##  4     5    -2  -9.867195
##  5     5    -2  -2.897235
##  6    10    -2 -19.70467 
##  7    10    -2  10.80861 
##  8    10    -2   7.158649
##  9    10    -2   2.255881
## 10    10    -2   5.924527
## # … with 39,515 more rows
```
…
---
class: inverse-blue middle
# Varying the title of a plot

---
# The data
Please follow along

```r
library(fivethirtyeight)
pulitzer
```

```
## # A tibble: 50 x 7
##    newspaper             circ2004 circ2013 pctchg_circ num_finals1990_2003 num_finals2004_2014
##    <chr>                    <dbl>    <dbl>       <int>               <int>               <int>
##  1 USA Today              2192098  1674306         -24                   1                   1
##  2 Wall Street Journal    2101017  2378827          13                  30                  20
##  3 New York Times         1119027  1865318          67                  55                  62
##  4 Los Angeles Times       983727   653868         -34                  44                  41
##  5 Washington Post         760034   474767         -38                  52                  48
##  6 New York Daily News     712671   516165         -28                   4                   2
##  7 New York Post           642844   500521         -22                   0                   0
##  8 Chicago Tribune         603315   414930         -31                  23                  15
##  9 San Jose Mercury News   558874   583998           4                   4                   2
## 10 Newsday                 553117   377744         -32                  12                   6
## # … with 40 more rows, and 1 more variable: num_finals1990_2014 <int>
```
…
---
# Nest data

```r
pulitzer%>%
	group_by(newspaper) %>%
	nest()
```

```
## # A tibble: 50 x 2
## # Groups:   newspaper [50]
##    newspaper             data                
##    <chr>                 <list>              
##  1 USA Today             <tibble[,2] [2 × 2]>
##  2 Wall Street Journal   <tibble[,2] [2 × 2]>
##  3 New York Times        <tibble[,2] [2 × 2]>
##  4 Los Angeles Times     <tibble[,2] [2 × 2]>
##  5 Washington Post       <tibble[,2] [2 × 2]>
##  6 New York Daily News   <tibble[,2] [2 × 2]>
##  7 New York Post         <tibble[,2] [2 × 2]>
##  8 Chicago Tribune       <tibble[,2] [2 × 2]>
##  9 San Jose Mercury News <tibble[,2] [2 × 2]>
## 10 Newsday               <tibble[,2] [2 × 2]>
## # … with 40 more rows
```
…
---

```r
p
```

```
## # A tibble: 50 x 3
## # Groups:   newspaper [50]
##    newspaper             data                 plot  
##    <chr>                 <list>               <list>
##  1 USA Today             <tibble[,2] [2 × 2]> <gg>  
##  2 Wall Street Journal   <tibble[,2] [2 × 2]> <gg>  
##  3 New York Times        <tibble[,2] [2 × 2]> <gg>  
##  4 Los Angeles Times     <tibble[,2] [2 × 2]> <gg>  
##  5 Washington Post       <tibble[,2] [2 × 2]> <gg>  
##  6 New York Daily News   <tibble[,2] [2 × 2]> <gg>  
##  7 New York Post         <tibble[,2] [2 × 2]> <gg>  
##  8 Chicago Tribune       <tibble[,2] [2 × 2]> <gg>  
##  9 San Jose Mercury News <tibble[,2] [2 × 2]> <gg>  
## 10 Newsday               <tibble[,2] [2 × 2]> <gg>  
## # … with 40 more rows
```
…
```
## # A tibble: 50 x 3
## # Rowwise:  newspaper
##    newspaper                                  data plot  
##    <chr>                        <list<tibble[,2]>> <list>
##  1 Arizona Republic                        [2 × 2] <gg>  
##  2 Atlanta Journal Constitution            [2 × 2] <gg>  
##  3 Baltimore Sun                           [2 × 2] <gg>  
##  4 Boston Globe                            [2 × 2] <gg>  
##  5 Boston Herald                           [2 × 2] <gg>  
##  6 Charlotte Observer                      [2 × 2] <gg>  
##  7 Chicago Sun-Times                       [2 × 2] <gg>  
##  8 Chicago Tribune                         [2 × 2] <gg>  
##  9 Cleveland Plain Dealer                  [2 × 2] <gg>  
## 10 Columbus Dispatch                       [2 × 2] <gg>  
## # … with 40 more rows
```
…
---
# List column version

```r
full_conditions %>%
	as_tibble() %>%
	mutate(sim = pmap(list(n, mu, sd), ~rnorm(..1, ..2, ..3)))
```

```
## # A tibble: 10,710 x 4
##        n    mu    sd sim       
##    <dbl> <dbl> <dbl> <list>    
##  1     5    -2     1 <dbl [5]> 
##  2    10    -2     1 <dbl [10]>
##  3    15    -2     1 <dbl [15]>
##  4    20    -2     1 <dbl [20]>
##  5    25    -2     1 <dbl [25]>
##  6    30    -2     1 <dbl [30]>
##  7    35    -2     1 <dbl [35]>
##  8    40    -2     1 <dbl [40]>
##  9    45    -2     1 <dbl [45]>
## 10    50    -2     1 <dbl [50]>
## # … with 10,700 more rows
```

---
# Unnest

```r
full_conditions %>%
	as_tibble() %>%
	mutate(sim = pmap(list(n, mu, sd), ~rnorm(..1, ..2, ..3))) %>%
	unnest(sim)
```

```
## # A tibble: 830,025 x 4
##        n    mu    sd        sim
##    <dbl> <dbl> <dbl>      <dbl>
##  1     5    -2     1 -0.9769357
##  2     5    -2     1 -1.026245 
##  3     5    -2     1 -1.983785 
##  4     5    -2     1 -1.262065 
##  5     5    -2     1 -0.3616705
##  6    10    -2     1 -1.136676 
##  7    10    -2     1 -1.665104 
##  8    10    -2     1 -3.062858 
##  9    10    -2     1 -4.412271 
## 10    10    -2     1 -0.9440350
## # … with 830,015 more rows
```
…
02:00

--

```r
full_conditions %>% 
  rowwise() %>% 
  mutate(sim = list(rnorm(n, mu, sd))) %>% 
  unnest(sim)
```

```
## # A tibble: 830,025 x 4
##        n    mu    sd        sim
##    <dbl> <dbl> <dbl>      <dbl>
##  1     5    -2     1 -4.246447 
##  2     5    -2     1 -3.394033 
##  3     5    -2     1 -2.688046 
##  4     5    -2     1 -4.004150 
##  5     5    -2     1 -2.636363 
##  6    10    -2     1 -0.5402081
##  7    10    -2     1 -2.075118 
##  8    10    -2     1 -1.927610 
##  9    10    -2     1 -2.871188 
## 10    10    -2     1 -0.9080542
## # … with 830,015 more rows
```
…
---
# Add column for total

```r
pulitzer<- pulitzer%>%
	group_by(newspaper) %>%
	mutate(tot = sum(n))
pulitzer
```

```
## # A tibble: 100 x 4
## # Groups:   newspaper [50]
##    newspaper           year_range     n   tot
##    <chr>               <chr>      <int> <int>
##  1 USA Today           1990-2003      1     2
##  2 USA Today           2004-2014      1     2
##  3 Wall Street Journal 1990-2003     30    50
##  4 Wall Street Journal 2004-2014     20    50
##  5 New York Times      1990-2003     55   117
##  6 New York Times      2004-2014     62   117
##  7 Los Angeles Times   1990-2003     44    85
##  8 Los Angeles Times   2004-2014     41    85
##  9 Washington Post     1990-2003     52   100
## 10 Washington Post     2004-2014     48   100
## # … with 90 more rows
```
…
---

```r
select(pulitzer, newspaper, label)
```

```
## # A tibble: 100 x 2
## # Groups:   newspaper [50]
##    newspaper           label                                      
##    <chr>               <glue>                                     
##  1 USA Today           Two Total Pulitzer Awards                  
##  2 USA Today           Two Total Pulitzer Awards                  
##  3 Wall Street Journal Fifty Total Pulitzer Awards                
##  4 Wall Street Journal Fifty Total Pulitzer Awards                
##  5 New York Times      One Hundred Seventeen Total Pulitzer Awards
##  6 New York Times      One Hundred Seventeen Total Pulitzer Awards
##  7 Los Angeles Times   Eighty-Five Total Pulitzer Awards          
##  8 Los Angeles Times   Eighty-Five Total Pulitzer Awards          
##  9 Washington Post     One Hundred Total Pulitzer Awards          
## 10 Washington Post     One Hundred Total Pulitzer Awards          
## # … with 90 more rows
```
…
---
# Produce all plots
### Nest first

```r
pulitzer%>%
	group_by(newspaper, label) %>%
	nest() 
```

```
## # A tibble: 50 x 3
## # Groups:   newspaper, label [50]
##    newspaper             label                                       data                
##    <chr>                 <glue>                                      <list>              
##  1 USA Today             Two Total Pulitzer Awards                   <tibble[,3] [2 × 3]>
##  2 Wall Street Journal   Fifty Total Pulitzer Awards                 <tibble[,3] [2 × 3]>
##  3 New York Times        One Hundred Seventeen Total Pulitzer Awards <tibble[,3] [2 × 3]>
##  4 Los Angeles Times     Eighty-Five Total Pulitzer Awards           <tibble[,3] [2 × 3]>
##  5 Washington Post       One Hundred Total Pulitzer Awards           <tibble[,3] [2 × 3]>
##  6 New York Daily News   Six Total Pulitzer Awards                   <tibble[,3] [2 × 3]>
##  7 New York Post         Zero Total Pulitzer Awards                  <tibble[,3] [2 × 3]>
##  8 Chicago Tribune       Thirty-Eight Total Pulitzer Awards          <tibble[,3] [2 × 3]>
##  9 San Jose Mercury News Six Total Pulitzer Awards                   <tibble[,3] [2 × 3]>
## 10 Newsday               Eighteen Total Pulitzer Awards              <tibble[,3] [2 × 3]>
## # … with 40 more rows
```
…
---

```r
final_plots2
```

```
## # A tibble: 50 x 4
## # Rowwise:  newspaper, label
##    newspaper                    label                                            data plots 
##    <chr>                        <glue>                             <list<tibble[,3]>> <list>
##  1 Arizona Republic             Seven Total Pulitzer Awards                   [2 × 3] <gg>  
##  2 Atlanta Journal Constitution Six Total Pulitzer Awards                     [2 × 3] <gg>  
##  3 Baltimore Sun                Thirteen Total Pulitzer Awards                [2 × 3] <gg>  
##  4 Boston Globe                 Forty-One Total Pulitzer Awards               [2 × 3] <gg>  
##  5 Boston Herald                Zero Total Pulitzer Awards                    [2 × 3] <gg>  
##  6 Charlotte Observer           Four Total Pulitzer Awards                    [2 × 3] <gg>  
##  7 Chicago Sun-Times            Two Total Pulitzer Awards                     [2 × 3] <gg>  
##  8 Chicago Tribune              Thirty-Eight Total Pulitzer Awards            [2 × 3] <gg>  
##  9 Cleveland Plain Dealer       Eleven Total Pulitzer Awards                  [2 × 3] <gg>  
## 10 Columbus Dispatch            One Total Pulitzer Awards                     [2 × 3] <gg>  
## # … with 40 more rows
```
…
---
# Add paths to data frame

```r
final_plots %>% 
* ungroup() %>%
  mutate(path = paths) %>% 
  select(plots, path)
```

```
## # A tibble: 50 x 2
##    plots 
##    <list>
##  1 <gg>  
##  2 <gg>  
##  3 <gg>  
##  4 <gg>  
##  5 <gg>  
##  6 <gg>  
##  7 <gg>  
##  8 <gg>  
##  9 <gg>  
## 10 <gg>  
## # … with 40 more rows, and 1 more variable: path <chr>
```
…
