Review
…
---
# Scenario

* Let's say you want to `scale()` (standardize) every numeric column in a data frame.

--
Use `palmerpenguins::penguins()` for our example.

```r
library(palmerpenguins)
penguins
```

```
## # A tibble: 344 x 8
##    species island    bill_length_mm bill_depth_mm flipper_length_mm body_mass_g sex     year
##    <fct>   <fct>              <dbl>         <dbl>             <int>       <int> <fct>  <int>
##  1 Adelie  Torgersen           39.1          18.7               181        3750 male    2007
##  2 Adelie  Torgersen           39.5          17.4               186        3800 female  2007
##  3 Adelie  Torgersen           40.3          18                 195        3250 female  2007
##  4 Adelie  Torgersen           NA            NA                  NA          NA <NA>    2007
##  5 Adelie  Torgersen           36.7          19.3               193        3450 female  2007
##  6 Adelie  Torgersen           39.3          20.6               190        3650 male    2007
##  7 Adelie  Torgersen           38.9          17.8               181        3625 female  2007
##  8 Adelie  Torgersen           39.2          19.6               195        4675 male    2007
##  9 Adelie  Torgersen           34.1          18.1               193        3475 <NA>    2007
## 10 Adelie  Torgersen           42            20.2               190        4250 <NA>    2007
## # … with 334 more rows
```
…
---

```r
penguins2
```

```
## # A tibble: 344 x 8
##    species island    bill_length_mm bill_depth_mm flipper_length_mm body_mass_g sex         year
##    <fct>   <fct>              <dbl>         <dbl>             <dbl>       <dbl> <fct>      <dbl>
##  1 Adelie  Torgersen     -0.8832047     0.7843001        -1.416272  -0.5633167  male   -1.257484
##  2 Adelie  Torgersen     -0.8099390     0.1260033        -1.060696  -0.5009690  female -1.257484
##  3 Adelie  Torgersen     -0.6634077     0.4298326        -0.4206603 -1.186793   female -1.257484
##  4 Adelie  Torgersen     NA            NA                NA         NA          <NA>   -1.257484
##  5 Adelie  Torgersen     -1.322799      1.088129         -0.5628905 -0.9374027  female -1.257484
##  6 Adelie  Torgersen     -0.8465718     1.746426         -0.7762357 -0.6880121  male   -1.257484
##  7 Adelie  Torgersen     -0.9198375     0.3285561        -1.416272  -0.7191859  female -1.257484
##  8 Adelie  Torgersen     -0.8648883     1.240044         -0.4206603  0.5901153  male   -1.257484
##  9 Adelie  Torgersen     -1.799025      0.4804708        -0.5628905 -0.9062289  <NA>   -1.257484
## 10 Adelie  Torgersen     -0.3520286     1.543873         -0.7762357  0.06016004 <NA>   -1.257484
## # … with 334 more rows
```
…
.pull-left[

```r
map_df(penguins, ~{
  if(is.numeric(.x)) {
    .x <- scale(.x)
  }
  .x
})
```

```
## # A tibble: 344 x 8
##    species island    bill_length_mm[,1] bill_depth_mm[,1] flipper_length_mm[,1] body_mass_g[,1] sex     year[,1]
##    <fct>   <fct>                  <dbl>             <dbl>                 <dbl>           <dbl> <fct>      <dbl>
##  1 Adelie  Torgersen         -0.8832047         0.7843001            -1.416272      -0.5633167  male   -1.257484
##  2 Adelie  Torgersen         -0.8099390         0.1260033            -1.060696      -0.5009690  female -1.257484
##  3 Adelie  Torgersen         -0.6634077         0.4298326            -0.4206603     -1.186793   female -1.257484
##  4 Adelie  Torgersen         NA                NA                    NA             NA          <NA>   -1.257484
##  5 Adelie  Torgersen         -1.322799          1.088129             -0.5628905     -0.9374027  female -1.257484
##  6 Adelie  Torgersen         -0.8465718         1.746426             -0.7762357     -0.6880121  male   -1.257484
##  7 Adelie  Torgersen         -0.9198375         0.3285561            -1.416272      -0.7191859  female -1.257484
##  8 Adelie  Torgersen         -0.8648883         1.240044             -0.4206603      0.5901153  male   -1.257484
##  9 Adelie  Torgersen         -1.799025          0.4804708            -0.5628905     -0.9062289  <NA>   -1.257484
## 10 Adelie  Torgersen         -0.3520286         1.543873             -0.7762357      0.06016004 <NA>   -1.257484
## # … with 334 more rows
```
]

.pull-right[

```r
map_df(penguins, function(.x) {
  if(is.numeric(.x)) {
    .x <- scale(.x)
  }
  .x
})
```

```
## # A tibble: 344 x 8
##    species island    bill_length_mm[,1] bill_depth_mm[,1] flipper_length_mm[,1] body_mass_g[,1] sex     year[,1]
##    <fct>   <fct>                  <dbl>             <dbl>                 <dbl>           <dbl> <fct>      <dbl>
##  1 Adelie  Torgersen         -0.8832047         0.7843001            -1.416272      -0.5633167  male   -1.257484
##  2 Adelie  Torgersen         -0.8099390         0.1260033            -1.060696      -0.5009690  female -1.257484
##  3 Adelie  Torgersen         -0.6634077         0.4298326            -0.4206603     -1.186793   female -1.257484
##  4 Adelie  Torgersen         NA                NA                    NA             NA          <NA>   -1.257484
##  5 Adelie  Torgersen         -1.322799          1.088129             -0.5628905     -0.9374027  female -1.257484
##  6 Adelie  Torgersen         -0.8465718         1.746426             -0.7762357     -0.6880121  male   -1.257484
##  7 Adelie  Torgersen         -0.9198375         0.3285561            -1.416272      -0.7191859  female -1.257484
##  8 Adelie  Torgersen         -0.8648883         1.240044             -0.4206603      0.5901153  male   -1.257484
##  9 Adelie  Torgersen         -1.799025          0.4804708            -0.5628905     -0.9062289  <NA>   -1.257484
## 10 Adelie  Torgersen         -0.3520286         1.543873             -0.7762357      0.06016004 <NA>   -1.257484
## # … with 334 more rows
```
…
* Solve the problem for one example, generalize it to a function.

--
Use the **palmerpenguins** dataset *for* your example!

--

```r
library(palmerpenguins)
penguins
```

```
## # A tibble: 344 x 8
##    species island    bill_length_mm bill_depth_mm flipper_length_mm body_mass_g sex     year
##    <fct>   <fct>              <dbl>         <dbl>             <int>       <int> <fct>  <int>
##  1 Adelie  Torgersen           39.1          18.7               181        3750 male    2007
##  2 Adelie  Torgersen           39.5          17.4               186        3800 female  2007
##  3 Adelie  Torgersen           40.3          18                 195        3250 female  2007
##  4 Adelie  Torgersen           NA            NA                  NA          NA <NA>    2007
##  5 Adelie  Torgersen           36.7          19.3               193        3450 female  2007
##  6 Adelie  Torgersen           39.3          20.6               190        3650 male    2007
##  7 Adelie  Torgersen           38.9          17.8               181        3625 female  2007
##  8 Adelie  Torgersen           39.2          19.6               195        4675 male    2007
##  9 Adelie  Torgersen           34.1          18.1               193        3475 <NA>    2007
## 10 Adelie  Torgersen           42            20.2               190        4250 <NA>    2007
## # … with 334 more rows
```
…
---
# Test it out

I'm selecting variables after just so we can see the counts

```r
add_counts(penguins, species) %>% 
  select(species, island, n)
```

```
## # A tibble: 344 x 3
##    species island        n
##    <fct>   <fct>     <int>
##  1 Adelie  Torgersen   152
##  2 Adelie  Torgersen   152
##  3 Adelie  Torgersen   152
##  4 Adelie  Torgersen   152
##  5 Adelie  Torgersen   152
##  6 Adelie  Torgersen   152
##  7 Adelie  Torgersen   152
##  8 Adelie  Torgersen   152
##  9 Adelie  Torgersen   152
## 10 Adelie  Torgersen   152
## # … with 334 more rows
```

---
# Test it again

This time let's add the proportions

```r
add_counts(penguins, species, add_proportions = TRUE) %>% 
  select(species, island, n, proportion)
```

```
## # A tibble: 344 x 4
##    species island        n proportion
##    <fct>   <fct>     <int>      <dbl>
##  1 Adelie  Torgersen   152  0.4418605
##  2 Adelie  Torgersen   152  0.4418605
##  3 Adelie  Torgersen   152  0.4418605
##  4 Adelie  Torgersen   152  0.4418605
##  5 Adelie  Torgersen   152  0.4418605
##  6 Adelie  Torgersen   152  0.4418605
##  7 Adelie  Torgersen   152  0.4418605
##  8 Adelie  Torgersen   152  0.4418605
##  9 Adelie  Torgersen   152  0.4418605
## 10 Adelie  Torgersen   152  0.4418605
## # … with 334 more rows
```
…
